Working with the R package BCEA
…
.panel[
.panel-name[Show. Me. The. Data]
<span style="display:block; margin-top: -10px ;"></span>

```r
# Creates a matrix with the underlying model simulations
inp = CreateInputs(vaccine, `print.lincom=FALSE`)           `# NB: this option will be slightly different in 2.4-1!`
# Visualise the output
inp$mat `%>% as_tibble()`                                   `# "piping" ('%>%') and formatting nicely`
```

```
# A tibble: 1,000 x 56
   Adverse.events Death.1.1. Death.2.1. Death.2.2. GP.1.1. GP.2.1. GP.2.2. Hospital.1.1. Hospital.2.1. Hospital.2.2. Infected.1.1. Infected.2.1.
            <dbl>      <dbl>      <dbl>      <dbl>   <dbl>   <dbl>   <dbl>         <dbl>         <dbl>         <dbl>         <dbl>         <dbl>
 1           1466          1          0          0    1664     958     230             0             1             0          5992          3401
 2           5329          1          1          0    1414     748     276             0             0             1          7471          4024
 3           5203          1          1          0     809     489      80             0             0             0          6718          4300
 4           2351          2          0          0    1761    1157     261             1             0             0          4837          3269
 5           8303          1          2          0    2472     964     432             1             1             0          4749          1894
 6           3607          1          1          0    2224    1342     260             1             0             0          4938          2976
 7           6304          4          1          1    3478    1107     591             2             1             0         11080          3547
 8           4337          1          1          1    1483     799     189             0             0             0          3867          2164
 9           5482          0          0          0    1587     798     279             0             0             0          5163          2532
10           3125          2          2          0    2578    1681     243             0             0             0          7265          4766
# … with 990 more rows, and 44 more variables: Infected.2.2. <dbl>, Mild.Compl.1.1. <dbl>, Mild.Compl.2.1. <dbl>, Mild.Compl.2.2. <dbl>,
#   Pneumonia.1.1. <dbl>, Pneumonia.2.1. <dbl>, Pneumonia.2.2. <dbl>, Trt.1.1.1. <dbl>, Trt.2.1.1. <dbl>, Trt.1.2.1. <dbl>, Trt.2.2.1. <dbl>,
#   Trt.1.2.2. <dbl>, Trt.2.2.2. <dbl>, beta.1. <dbl>, beta.2. <dbl>, beta.3. <dbl>, beta.4. <dbl>, beta.5. <dbl>, beta.6. <dbl>, beta.7. <dbl>,
#   delta <dbl>, eta <dbl>, gamma.1. <dbl>, gamma.2. <dbl>, lambda <dbl>, n.1.2. <dbl>, n.2.2. <dbl>, phi <dbl>, pi.1.2. <dbl>, psi.1. <dbl>,
#   psi.2. <dbl>, psi.3. <dbl>, psi.4. <dbl>, psi.5. <dbl>, psi.6. <dbl>, psi.7. <dbl>, psi.8. <dbl>, q.1. <dbl>, q.4. <dbl>, q.5. <dbl>, q.6. <dbl>,
#   q.7. <dbl>, rho.2. <dbl>, xi <dbl>
```
…
<span style="display:block; margin-top: 40px ;"></span>
- NB: The data stored in the `Vaccine` object (built-in in `BCEA`) already contains the objects `e,c` that can be used to run the decision analysis...

- So, this step is actually not needed (but documented in <svg viewBox="0 0 576 512" xmlns="http://www.w3.org/2000/svg" style="height:1em;fill:currentColor;position:relative;display:inline-block;top:.1em;">  [ comment ]  <path d="M542.22 32.05c-54.8 3.11-163.72 14.43-230.96 55.59-4.64 2.84-7.27 7.89-7.27 13.17v363.87c0 11.55 12.63 18.85 23.28 13.49 69.18-34.82 169.23-44.32 218.7-46.92 16.89-.89 30.02-14.43 30.02-30.66V62.75c.01-17.71-15.35-31.74-33.77-30.7zM264.73 87.64C197.5 46.48 88.58 35.17 33.78 32.05 15.36 31.01 0 45.04 0 62.75V400.6c0 16.24 13.13 29.78 30.02 30.66 49.49 2.6 149.59 12.11 218.77 46.95 10.62 5.35 23.21-1.94 23.21-13.46V100.63c0-5.29-2.62-10.14-7.27-12.99z"></path></svg> [Baio et al, 2017](http://www.statistica.it/gianluca/book/bcea/))
]

.panel[
.panel-name[Cost & effects]

```r
cbind(e,c) %>% as_tibble(`.name_repair="universal"`)     `# ensures that the columns are named` 
```

```
# A tibble: 1,000 x 4
   Status.Quo...1 Vaccination...2 Status.Quo...3 Vaccination...4
            <dbl>           <dbl>          <dbl>           <dbl>
 1      -0.00105        -0.000899          10.4            16.3 
 2      -0.000884       -0.000732           5.83            9.37
 3      -0.000890       -0.000698           5.78           15.9 
 4      -0.00164        -0.00114           12.2            18.7 
 5      -0.00135        -0.000957           9.79           16.5 
 6      -0.00143        -0.000936           6.56            9.69
 7      -0.000960       -0.00105            8.45           11.3 
 8      -0.00181        -0.00139            6.76            9.99
 9      -0.000842       -0.000556           3.60           10.1 
10      -0.00168        -0.00105            4.09           11.0 
# … with 990 more rows
```
…
