Introduction to R for Health Economics using BCEA
…
In this case, PSA simulations obtained from a full Bayesian model, but could be done in a spreadsheet and imported into R

How does BCEA work?

Show. Me. The. Data!

# The object 'Vaccine' contains a matrix 'vaccine_mat', with all the simulated values for the many model parameters
# BCEA can create a matrix with the underlying model simulations starting from various formats (BUGS/R/Excel)
# and can get rid of "redundant" columns (those that are linear combination of each other...)
inp = createInputs(vaccine_mat,print_is_linear_comb=FALSE)

# Visualise the output
inp$mat |> as_tibble()                    # "piping" ('%>%' in `tidyverse` or '|>` in newer base `R`) and formatting nicely

# A tibble: 1,000 × 56
   Adverse.events Death.1.1. Death.2.1. Death.2.2. GP.1.1. GP.2.1. GP.2.2. Hospital.1.1. Hospital.2.1. Hospital.2.2. Infected.1.1. Infected.2.1.
            <dbl>      <dbl>      <dbl>      <dbl>   <dbl>   <dbl>   <dbl>         <dbl>         <dbl>         <dbl>         <dbl>         <dbl>
 1           1466          1          0          0    1664     958     230             0             1             0          5992          3401
 2           5329          1          1          0    1414     748     276             0             0             1          7471          4024
 3           5203          1          1          0     809     489      80             0             0             0          6718          4300
 4           2351          2          0          0    1761    1157     261             1             0             0          4837          3269
 5           8303          1          2          0    2472     964     432             1             1             0          4749          1894
 6           3607          1          1          0    2224    1342     260             1             0             0          4938          2976
 7           6304          4          1          1    3478    1107     591             2             1             0         11080          3547
 8           4337          1          1          1    1483     799     189             0             0             0          3867          2164
 9           5482          0          0          0    1587     798     279             0             0             0          5163          2532
10           3125          2          2          0    2578    1681     243             0             0             0          7265          4766
# ℹ 990 more rows
# ℹ 44 more variables: Infected.2.2. <dbl>, Mild.Compl.1.1. <dbl>, Mild.Compl.2.1. <dbl>, Mild.Compl.2.2. <dbl>, Pneumonia.1.1. <dbl>,
#   Pneumonia.2.1. <dbl>, Pneumonia.2.2. <dbl>, Trt.1.1.1. <dbl>, Trt.2.1.1. <dbl>, Trt.1.2.1. <dbl>, Trt.2.2.1. <dbl>, Trt.1.2.2. <dbl>,
#   Trt.2.2.2. <dbl>, beta.1. <dbl>, beta.2. <dbl>, beta.3. <dbl>, beta.4. <dbl>, beta.5. <dbl>, beta.6. <dbl>, beta.7. <dbl>, delta <dbl>,
#   eta <dbl>, gamma.1. <dbl>, gamma.2. <dbl>, lambda <dbl>, n.1.2. <dbl>, n.2.2. <dbl>, phi <dbl>, pi.1.2. <dbl>, psi.1. <dbl>, psi.2. <dbl>,
#   psi.3. <dbl>, psi.4. <dbl>, psi.5. <dbl>, psi.6. <dbl>, psi.7. <dbl>, psi.8. <dbl>, q.1. <dbl>, q.4. <dbl>, q.5. <dbl>, q.6. <dbl>, q.7. <dbl>,
#   rho.2. <dbl>, xi <dbl>
…
# Aggregates the model inputs to compute (e,c)
eff = -(QALYs.inf + QALYs.pne + QALYs.adv + QALYs.hosp + QALYs.death) + ...
cost = cost.GP + cost.hosp + cost.otc + ...

NB: The data stored in the Vaccine object (built-in in BCEA) already contains the objects (eff,cost) that can be used to run the decision analysis…

So, this step is actually not needed (but documented in  Baio et al, 2017)

How does BCEA work?

Cost & effects

cbind(eff,cost) %>% as_tibble(.name_repair="universal")       # ensures that the columns are named

# A tibble: 1,000 × 4
   Status.Quo...1 Vaccination...2 Status.Quo...3 Vaccination...4
            <dbl>           <dbl>          <dbl>           <dbl>
 1      -0.00105        -0.000899          10.4            16.3 
 2      -0.000884       -0.000732           5.83            9.37
 3      -0.000890       -0.000698           5.78           15.9 
 4      -0.00164        -0.00114           12.2            18.7 
 5      -0.00135        -0.000957           9.79           16.5 
 6      -0.00143        -0.000936           6.56            9.69
 7      -0.000960       -0.00105            8.45           11.3 
 8      -0.00181        -0.00139            6.76            9.99
 9      -0.000842       -0.000556           3.60           10.1 
10      -0.00168        -0.00105            4.09           11.0 
# ℹ 990 more rows
…
